{"photos":{"page":1, "pages":956, "perpage":100, "total":"95578", "photo":[{"id":"5471108375", "owner":"22912166@N00", "secret":"7c32f813dd", "server":"5292", "farm":6, "title":"Akihabara GUNDAM cafe", "ispublic":1, "isfriend":0, "isfamily":0}, {"id":"5471514280", "owner":"49186835@N02", "secret":"72b75afd06", "server":"5216", "farm":6, "title":"Gundam", "ispublic":1, "isfriend":0, "isfamily":0}, {"id":"5471473052", "owner":"44120016@N06", "secret":"25eaf57df3", "server":"5294", "farm":6, "title":"GUNDAM WING Japanese Relena Peacecraft Pencil Board Shitajiki ii F&B", "ispublic":1, "isfriend":0, "isfamily":0}, {"id":"5470879805", "owner":"44120016@N06", "secret":"9cd9df75b0", "server":"5211", "farm":6, "title":"GUNDAM WING Japanese Zechs Merquise Shitajiki Pencil Board", "ispublic":1, "isfriend":0, "isfamily":0}, {"id":"5471222644", "owner":"54954773@N07", "secret":"c29028cb23", "server":"5253", "farm":6, "title":"MG Epyon 2", "ispublic":1, "isfriend":0, "isfamily":0}, {"id":"5471222638", "owner":"54954773@N07", "secret":"059bac160d", "server":"5056", "farm":6, "title":"MG Epyon 1", "ispublic":1, "isfriend":0, "isfamily":0}, {"id":"5470626275", "owner":"54954773@N07", "secret":"1d19d8968a", "server":"5300", "farm":6, "title":"MG Epyon 2", "ispublic":1, "isfriend":0, "isfamily":0}, {"id":"5470067770", "owner":"7659249@N02", "secret":"487930d7e6", "server":"5219", "farm":6, "title":"RX-78-2", "ispublic":1, "isfriend":0, "isfamily":0}, {"id":"5468946587", "owner":"59834610@N03", "secret":"02c913295d", "server":"5300", "farm":6, "title":"Current set", "ispublic":1, "isfriend":0, "isfamily":0}, {"id":"5469542704", "owner":"59834610@N03", "secret":"727a47538d", "server":"5297", "farm":6, "title":"RX-78-2 PG", "ispublic":1, "isfriend":0, "isfamily":0}, {"id":"5468951439", "owner":"59834610@N03", "secret":"8bc0f926a7", "server":"5053", "farm":6, "title":"Char Zaku PG", "ispublic":1, "isfriend":0, "isfamily":0}, {"id":"5469540906", "owner":"59834610@N03", "secret":"d585d073db", "server":"5095", "farm":6, "title":"Char Zaku RG", "ispublic":1, "isfriend":0, "isfamily":0}, {"id":"5468927221", "owner":"59834610@N03", "secret":"f4ff5fe442", "server":"5173", "farm":6, "title":"Spray Box Building 3", "ispublic":1, "isfriend":0, "isfamily":0}, {"id":"5468930323", "owner":"59834610@N03", "secret":"a7a41af26e", "server":"5180", "farm":6, "title":"Spray Box Building 5", "ispublic":1, "isfriend":0, "isfamily":0}, {"id":"5469521378", "owner":"59834610@N03", "secret":"044e01fe2b", "server":"5251", "farm":6, "title":"Spray Box Building 4", "ispublic":1, "isfriend":0, "isfamily":0}, {"id":"5468923925", "owner":"59834610@N03", "secret":"08b0c1c0dc", "server":"5296", "farm":6, "title":"Spray Box Building 1", "ispublic":1, "isfriend":0, "isfamily":0}, {"id":"5468925635", "owner":"59834610@N03", "secret":"1340bf1c07", "server":"5173", "farm":6, "title":"Spray Box Building 2", "ispublic":1, "isfriend":0, "isfamily":0}, {"id":"5468921664", "owner":"46614817@N04", "secret":"ecc2090502", "server":"5218", "farm":6, "title":"Workspace #2", "ispublic":1, "isfriend":0, "isfamily":0}, {"id":"5468329448", "owner":"56717620@N03", "secret":"58da74c0e0", "server":"5052", "farm":6, "title":"SD GUNDAM G Generation World(SDG:<----(())", "ispublic":1, "isfriend":0, "isfamily":0}, {"id":"5467486349", "owner":"54954773@N07", "secret":"231a945fb0", "server":"5177", "farm":6, "title":"mg2", "ispublic":1, "isfriend":0, "isfamily":0}, {"id":"5468017852", "owner":"46513549@N00", "secret":"432d8f1b73", "server":"5132", "farm":6, "title":"Day 52: The Nostalgia", "ispublic":1, "isfriend":0, "isfamily":0}, {"id":"5467604788", "owner":"99755956@N00", "secret":"b2df138f65", "server":"5058", "farm":6, "title":"Counterattack", "ispublic":1, "isfriend":0, "isfamily":0}, {"id":"5466715793", "owner":"47140534@N08", "secret":"f1b530342a", "server":"5057", "farm":6, "title":"crime scene", "ispublic":1, "isfriend":0, "isfamily":0}, {"id":"5466471583", "owner":"47140534@N08", "secret":"3ab1e0b1d8", "server":"5254", "farm":6, "title":"leaving crime scene", "ispublic":1, "isfriend":0, "isfamily":0}, {"id":"5465620455", "owner":"23547620@N06", "secret":"5c5e566af2", "server":"5091", "farm":6, "title":"PG SF - Decals 2", "ispublic":1, "isfriend":0, "isfamily":0}, {"id":"5465620527", "owner":"23547620@N06", "secret":"a4dff291be", "server":"5134", "farm":6, "title":"PG SF - Decals 1", "ispublic":1, "isfriend":0, "isfamily":0}, {"id":"5465620639", "owner":"23547620@N06", "secret":"f23b306e76", "server":"5099", "farm":6, "title":"PG SF - Decals 3", "ispublic":1, "isfriend":0, "isfamily":0}, {"id":"5465176657", "owner":"46614817@N04", "secret":"472f615603", "server":"5058", "farm":6, "title":"Workspace #1", "ispublic":1, "isfriend":0, "isfamily":0}, {"id":"5464886495", "owner":"31624812@N05", "secret":"4d083cafcc", "server":"5138", "farm":6, "title":"Haters gonna hate", "ispublic":1, "isfriend":0, "isfamily":0}, {"id":"5464627218", "owner":"39787103@N04", "secret":"a8a5700b27", "server":"5213", "farm":6, "title":"Gundam Gundam oh oh", "ispublic":1, "isfriend":0, "isfamily":0}, {"id":"5463952769", "owner":"53026603@N00", "secret":"a655c31dc6", "server":"5053", "farm":6, "title":"1:144 RX-78 GUNDAM(1980)", "ispublic":1, "isfriend":0, "isfamily":0}, {"id":"5464553320", "owner":"53026603@N00", "secret":"5b330c4534", "server":"5253", "farm":6, "title":"1:144 RX-78 GUNDAM(1980)", "ispublic":1, "isfriend":0, "isfamily":0}, {"id":"5464554052", "owner":"53026603@N00", "secret":"b30b887326", "server":"5254", "farm":6, "title":"1:144 RX-78 GUNDAM(1980)", "ispublic":1, "isfriend":0, "isfamily":0}, {"id":"5463953575", "owner":"53026603@N00", "secret":"2966e1fc44", "server":"5257", "farm":6, "title":"1:144 RX-78 GUNDAM(1980)", "ispublic":1, "isfriend":0, "isfamily":0}, {"id":"5463952351", "owner":"53026603@N00", "secret":"b01fac2f4e", "server":"5018", "farm":6, "title":"1:144 RX-78 GUNDAM(1980) x [HGUC] RGM-79 GM", "ispublic":1, "isfriend":0, "isfamily":0}, {"id":"5462747055", "owner":"22546349@N07", "secret":"ef82e611a4", "server":"5133", "farm":6, "title":"Playing with my gundams", "ispublic":1, "isfriend":0, "isfamily":0}, {"id":"5460686263", "owner":"34711874@N00", "secret":"4c99c8bf36", "server":"5058", "farm":6, "title":"R0012254", "ispublic":1, "isfriend":0, "isfamily":0}, {"id":"5460686101", "owner":"34711874@N00", "secret":"6212c69101", "server":"5220", "farm":6, "title":"R0012250", "ispublic":1, "isfriend":0, "isfamily":0}, {"id":"5461291268", "owner":"34711874@N00", "secret":"aa81b68e85", "server":"5175", "farm":6, "title":"R0012251", "ispublic":1, "isfriend":0, "isfamily":0}, {"id":"5461290968", "owner":"34711874@N00", "secret":"a9f7fa5938", "server":"5096", "farm":6, "title":"R0012247", "ispublic":1, "isfriend":0, "isfamily":0}, {"id":"5461291152", "owner":"34711874@N00", "secret":"2c96a98525", "server":"5293", "farm":6, "title":"R0012249", "ispublic":1, "isfriend":0, "isfamily":0}, {"id":"5461291362", "owner":"34711874@N00", "secret":"8f1a08782e", "server":"5060", "farm":6, "title":"R0012253", "ispublic":1, "isfriend":0, "isfamily":0}, {"id":"5461291502", "owner":"34711874@N00", "secret":"94fc2694a0", "server":"5139", "farm":6, "title":"R0012255", "ispublic":1, "isfriend":0, "isfamily":0}, {"id":"5461291316", "owner":"34711874@N00", "secret":"8fd23bec48", "server":"5056", "farm":6, "title":"R0012252", "ispublic":1, "isfriend":0, "isfamily":0}, {"id":"5461291546", "owner":"34711874@N00", "secret":"9bdef15f9e", "server":"5014", "farm":6, "title":"R0012256", "ispublic":1, "isfriend":0, "isfamily":0}, {"id":"5460640807", "owner":"57694615@N02", "secret":"ba63808cec", "server":"5257", "farm":6, "title":"", "ispublic":1, "isfriend":0, "isfamily":0}, {"id":"5461242256", "owner":"59501779@N02", "secret":"d0ac223e6d", "server":"5100", "farm":6, "title":"MG \u30b9\u30c8\u30e9\u30a4\u30af\u30d5\u30ea\u30fc\u30c0\u30e0", "ispublic":1, "isfriend":0, "isfamily":0}, {"id":"5461244962", "owner":"57694615@N02", "secret":"a5f83cda8f", "server":"5016", "farm":6, "title":"", "ispublic":1, "isfriend":0, "isfamily":0}, {"id":"5461245566", "owner":"57694615@N02", "secret":"2d3afccde7", "server":"5095", "farm":6, "title":"", "ispublic":1, "isfriend":0, "isfamily":0}, {"id":"5461242118", "owner":"59501779@N02", "secret":"b5c936d229", "server":"5180", "farm":6, "title":"MG \u30b9\u30c8\u30e9\u30a4\u30af\u30d5\u30ea\u30fc\u30c0\u30e0", "ispublic":1, "isfriend":0, "isfamily":0}, {"id":"5460640155", "owner":"57694615@N02", "secret":"515f377d29", "server":"5100", "farm":6, "title":"", "ispublic":1, "isfriend":0, "isfamily":0}, {"id":"5460636207", "owner":"59501779@N02", "secret":"5cc9a41a17", "server":"5297", "farm":6, "title":"MG \u30b9\u30c8\u30e9\u30a4\u30af\u30d5\u30ea\u30fc\u30c0\u30e0", "ispublic":1, "isfriend":0, "isfamily":0}, {"id":"5460640303", "owner":"57694615@N02", "secret":"28b31f78bf", "server":"5136", "farm":6, "title":"", "ispublic":1, "isfriend":0, "isfamily":0}, {"id":"5461246912", "owner":"57694615@N02", "secret":"82fdf97240", "server":"5291", "farm":6, "title":"", "ispublic":1, "isfriend":0, "isfamily":0}, {"id":"5461245408", "owner":"57694615@N02", "secret":"8908970488", "server":"5016", "farm":6, "title":"", "ispublic":1, "isfriend":0, "isfamily":0}, {"id":"5461245244", "owner":"57694615@N02", "secret":"b18b05505b", "server":"5132", "farm":6, "title":"", "ispublic":1, "isfriend":0, "isfamily":0}, {"id":"5461244598", "owner":"57694615@N02", "secret":"93a6da0ea9", "server":"5259", "farm":6, "title":"AMURO RAY", "ispublic":1, "isfriend":0, "isfamily":0}, {"id":"5461241492", "owner":"59501779@N02", "secret":"03ab9afa32", "server":"5299", "farm":6, "title":"MG \u30b9\u30c8\u30e9\u30a4\u30af\u30d5\u30ea\u30fc\u30c0\u30e0", "ispublic":1, "isfriend":0, "isfamily":0}, {"id":"5461246726", "owner":"57694615@N02", "secret":"8f477e39a6", "server":"5132", "farm":6, "title":"", "ispublic":1, "isfriend":0, "isfamily":0}, {"id":"5461241112", "owner":"59501779@N02", "secret":"a15eb49e81", "server":"5299", "farm":6, "title":"MG \u30b9\u30c8\u30e9\u30a4\u30af\u30d5\u30ea\u30fc\u30c0\u30e0", "ispublic":1, "isfriend":0, "isfamily":0}, {"id":"5461246446", "owner":"57694615@N02", "secret":"f38f2c9b2f", "server":"5091", "farm":6, "title":"", "ispublic":1, "isfriend":0, "isfamily":0}, {"id":"5461247322", "owner":"57694615@N02", "secret":"6489d0d70c", "server":"5178", "farm":6, "title":"", "ispublic":1, "isfriend":0, "isfamily":0}, {"id":"5461247184", "owner":"57694615@N02", "secret":"cd9e0512d4", "server":"5179", "farm":6, "title":"", "ispublic":1, "isfriend":0, "isfamily":0}, {"id":"5461245774", "owner":"57694615@N02", "secret":"d632b9ff1b", "server":"5214", "farm":6, "title":"", "ispublic":1, "isfriend":0, "isfamily":0}, {"id":"5461245094", "owner":"57694615@N02", "secret":"fe7ef7e40a", "server":"5055", "farm":6, "title":"", "ispublic":1, "isfriend":0, "isfamily":0}, {"id":"5461246224", "owner":"57694615@N02", "secret":"9453f65533", "server":"5057", "farm":6, "title":"", "ispublic":1, "isfriend":0, "isfamily":0}, {"id":"5461241730", "owner":"59501779@N02", "secret":"59ea8e57d6", "server":"5017", "farm":6, "title":"MG \u30b9\u30c8\u30e9\u30a4\u30af\u30d5\u30ea\u30fc\u30c0\u30e0", "ispublic":1, "isfriend":0, "isfamily":0}, {"id":"5461246352", "owner":"57694615@N02", "secret":"e88318bec5", "server":"5293", "farm":6, "title":"", "ispublic":1, "isfriend":0, "isfamily":0}, {"id":"5460641219", "owner":"57694615@N02", "secret":"64f6c4d064", "server":"5096", "farm":6, "title":"", "ispublic":1, "isfriend":0, "isfamily":0}, {"id":"5460641809", "owner":"57694615@N02", "secret":"e4de34c38d", "server":"5053", "farm":6, "title":"", "ispublic":1, "isfriend":0, "isfamily":0}, {"id":"5460637031", "owner":"59501779@N02", "secret":"f088bd0920", "server":"5252", "farm":6, "title":"MG \u30b9\u30c8\u30e9\u30a4\u30af\u30d5\u30ea\u30fc\u30c0\u30e0", "ispublic":1, "isfriend":0, "isfamily":0}, {"id":"5461244710", "owner":"57694615@N02", "secret":"f49b4b9933", "server":"5175", "farm":6, "title":"", "ispublic":1, "isfriend":0, "isfamily":0}, {"id":"5460636755", "owner":"59501779@N02", "secret":"db725dc41d", "server":"5058", "farm":6, "title":"MG \u30b9\u30c8\u30e9\u30a4\u30af\u30d5\u30ea\u30fc\u30c0\u30e0", "ispublic":1, "isfriend":0, "isfamily":0}, {"id":"5460635599", "owner":"59501779@N02", "secret":"e3f95c4b66", "server":"5018", "farm":6, "title":"MG \u30b9\u30c8\u30e9\u30a4\u30af\u30d5\u30ea\u30fc\u30c0\u30e0", "ispublic":1, "isfriend":0, "isfamily":0}, {"id":"5460406993", "owner":"51718800@N04", "secret":"37e944e967", "server":"5012", "farm":6, "title":"Infinite Justice", "ispublic":1, "isfriend":0, "isfamily":0}, {"id":"5460407873", "owner":"51718800@N04", "secret":"83a6c7cd56", "server":"5013", "farm":6, "title":"Infinite Justice", "ispublic":1, "isfriend":0, "isfamily":0}, {"id":"5460408843", "owner":"51718800@N04", "secret":"34a5779437", "server":"5217", "farm":6, "title":"Infinite Justice", "ispublic":1, "isfriend":0, "isfamily":0}, {"id":"5461015848", "owner":"51718800@N04", "secret":"465f9c2226", "server":"5015", "farm":6, "title":"Crossbone", "ispublic":1, "isfriend":0, "isfamily":0}, {"id":"5459701663", "owner":"51718800@N04", "secret":"d151af7732", "server":"5295", "farm":6, "title":"Impulse", "ispublic":1, "isfriend":0, "isfamily":0}, {"id":"5460249592", "owner":"51718800@N04", "secret":"f7a2a3f505", "server":"5056", "farm":6, "title":"Impulse", "ispublic":1, "isfriend":0, "isfamily":0}, {"id":"5459611561", "owner":"51718800@N04", "secret":"da3a04c63c", "server":"5098", "farm":6, "title":"Impulse", "ispublic":1, "isfriend":0, "isfamily":0}, {"id":"5460045806", "owner":"16071304@N00", "secret":"4f71f21ec2", "server":"5216", "farm":6, "title":"Gundam in Taipei airport", "ispublic":1, "isfriend":0, "isfamily":0}, {"id":"5459272411", "owner":"66762699@N00", "secret":"3f1e2c1a2a", "server":"5220", "farm":6, "title":"Gundam", "ispublic":1, "isfriend":0, "isfamily":0}, {"id":"5459878614", "owner":"66762699@N00", "secret":"699b7efb5a", "server":"5177", "farm":6, "title":"battle_#2", "ispublic":1, "isfriend":0, "isfamily":0}, {"id":"5458355319", "owner":"59682798@N07", "secret":"9d17af3850", "server":"5174", "farm":6, "title":"DSC00370", "ispublic":1, "isfriend":0, "isfamily":0}, {"id":"5458356479", "owner":"59682798@N07", "secret":"6fbd02a6bd", "server":"5293", "farm":6, "title":"NEC_0157", "ispublic":1, "isfriend":0, "isfamily":0}, {"id":"5458963516", "owner":"59682798@N07", "secret":"6d3012f182", "server":"5138", "farm":6, "title":"NEC_0152", "ispublic":1, "isfriend":0, "isfamily":0}, {"id":"5458334211", "owner":"59682798@N07", "secret":"7113067ffd", "server":"5058", "farm":6, "title":"PICT9664", "ispublic":1, "isfriend":0, "isfamily":0}, {"id":"5458334373", "owner":"59682798@N07", "secret":"caa7d48bc4", "server":"5059", "farm":6, "title":"PICT9571", "ispublic":1, "isfriend":0, "isfamily":0}, {"id":"5458353861", "owner":"59682798@N07", "secret":"3b9d4bdde5", "server":"5177", "farm":6, "title":"DSC00461", "ispublic":1, "isfriend":0, "isfamily":0}, {"id":"5458334317", "owner":"59682798@N07", "secret":"e6260fd849", "server":"5179", "farm":6, "title":"PICT9611", "ispublic":1, "isfriend":0, "isfamily":0}, {"id":"5458356815", "owner":"59682798@N07", "secret":"70d673aa8b", "server":"5177", "farm":6, "title":"NEC_0150", "ispublic":1, "isfriend":0, "isfamily":0}, {"id":"5458356339", "owner":"59682798@N07", "secret":"b3ec686be1", "server":"5052", "farm":6, "title":"DSC00367", "ispublic":1, "isfriend":0, "isfamily":0}, {"id":"5458353009", "owner":"59682798@N07", "secret":"ef9b53b909", "server":"5291", "farm":6, "title":"DSC00474", "ispublic":1, "isfriend":0, "isfamily":0}, {"id":"5458941478", "owner":"59682798@N07", "secret":"d0f2604c39", "server":"5091", "farm":6, "title":"PICT9617", "ispublic":1, "isfriend":0, "isfamily":0}, {"id":"5458354833", "owner":"59682798@N07", "secret":"9ecb7bb110", "server":"5217", "farm":6, "title":"DSC00372", "ispublic":1, "isfriend":0, "isfamily":0}, {"id":"5458964088", "owner":"59682798@N07", "secret":"1b5c02476d", "server":"5060", "farm":6, "title":"DSC00307", "ispublic":1, "isfriend":0, "isfamily":0}, {"id":"5457594443", "owner":"59060950@N06", "secret":"25222bc23f", "server":"5255", "farm":6, "title":"00G-07", "ispublic":1, "isfriend":0, "isfamily":0}, {"id":"5457595231", "owner":"59060950@N06", "secret":"d3effc8fac", "server":"5179", "farm":6, "title":"00G-22", "ispublic":1, "isfriend":0, "isfamily":0}, {"id":"5458201508", "owner":"59060950@N06", "secret":"14a5f1f1ec", "server":"5139", "farm":6, "title":"00G-01", "ispublic":1, "isfriend":0, "isfamily":0}]}, "stat":"ok"}